{"totalResults":694,"page":1,"totalPages":29,"perPage":24,"cursor":"AoMIQLoDPTg0MjVDcmFzc3VsYWNlYWVSb3N1bGFyaWEsVGF4b25fNTI3MTA0","message":"If you would like to download and use the POWO data in a conciencious way, please use our official library pykew [https://github.com/RBGKew/pykew].","results":[{"accepted":true,"author":"J.St.-Hil.","kingdom":"Plantae","family":"Crassulaceae","name":"Crassulaceae","rank":"Family","url":"/taxon/urn:lsid:ipni.org:names:30000887-2","fqId":"urn:lsid:ipni.org:names:30000887-2","images":[{"thumbnail":"http://storage.googleapis.com/powop-assets/kew_profiles/Kalanchoe%20schimperiana%20(Main)_thumbnail.jpg","fullsize":"http://storage.googleapis.com/powop-assets/kew_profiles/Kalanchoe%20schimperiana%20(Main)_fullsize.jpg","caption":"Kalanchoe schimperiana"},{"thumbnail":"http://storage.googleapis.com/powop-assets/kew_profiles/KPPCONT_047092_thumbnail.jpg","fullsize":"http://storage.googleapis.com/powop-assets/kew_profiles/KPPCONT_047092_fullsize.jpg","caption":"Crassula coccinea (red crassula)"},{"thumbnail":"http://d2seqvvyy3b8p2.cloudfront.net/c6c264484270b7fc43da50aa3128e015.jpg","fullsize":"http://d2seqvvyy3b8p2.cloudfront.net/44f219842e7336955f744f380fbbba6e.jpg","caption":"Kalanchoe pinnata"}]},{"accepted":true,"author":"Lem.","kingdom":"Plantae","family":"Crassulaceae","name":"Adromischus","rank":"Genus","url":"/taxon/urn:lsid:ipni.org:names:12117-1","fqId":"urn:lsid:ipni.org:names:12117-1","images":[{"thumbnail":"http://d2seqvvyy3b8p2.cloudfront.net/a4ce9582fc76e422eb2b3dfa27c227ac.jpg","fullsize":"http://d2seqvvyy3b8p2.cloudfront.net/14a6933fe1b4a1f32975f088e23fbf97.jpg","caption":"A specimen from Kew's Herbarium"},{"thumbnail":"http://d2seqvvyy3b8p2.cloudfront.net/2f813415cc530e9538436e54f4dcbaca.jpg","fullsize":"http://d2seqvvyy3b8p2.cloudfront.net/bdf3b750e1590cf49d13defc61163759.jpg","caption":"A specimen from Kew's Herbarium"},{"thumbnail":"http://d2seqvvyy3b8p2.cloudfront.net/b4336f53394c147debba55ca37abadd1.jpg","fullsize":"http://d2seqvvyy3b8p2.cloudfront.net/2cc296f9a77e1a1c65911a985809803e.jpg","caption":"A specimen from Kew's Herbarium"}]},{"accepted":true,"author":"Webb & Berthel.","kingdom":"Plantae","family":"Crassulaceae","name":"Aeonium","rank":"Genus","url":"/taxon/urn:lsid:ipni.org:names:12119-1","fqId":"urn:lsid:ipni.org:names:12119-1","images":[{"thumbnail":"http://d2seqvvyy3b8p2.cloudfront.net/0e64668ea7266e0873863aeb75f3a08b.jpg","fullsize":"http://d2seqvvyy3b8p2.cloudfront.net/e32efc01fda0ba65d41d64ef10f1979c.jpg","caption":"Aeonium 'Kiwi'"},{"thumbnail":"http://d2seqvvyy3b8p2.cloudfront.net/8c15e80cea3212acd4ea4bf9128b2a29.jpg","fullsize":"http://d2seqvvyy3b8p2.cloudfront.net/da5b173fe3dda56098b1dba06dd6ac94.jpg","caption":"Aeonium 'Kiwi'"},{"thumbnail":"http://d2seqvvyy3b8p2.cloudfront.net/7c2e55fd8f9e7c91499a145ebb7566f7.jpg","fullsize":"http://d2seqvvyy3b8p2.cloudfront.net/732d06c76c1257af85e129be69929f26.jpg","caption":"Aeonium arboreum"}]},{"accepted":true,"author":"Webb & Berthel.","kingdom":"Plantae","family":"Crassulaceae","name":"Aichryson","rank":"Genus","url":"/taxon/urn:lsid:ipni.org:names:12121-1","fqId":"urn:lsid:ipni.org:names:12121-1","images":[{"thumbnail":"http://d2seqvvyy3b8p2.cloudfront.net/602ba5cb6ff0d57a32acbdd383b95271.jpg","fullsize":"http://d2seqvvyy3b8p2.cloudfront.net/545c1b1f01ea9b2b1a3787ec67d914ad.jpg","caption":"A specimen from Kew's Herbarium"},{"thumbnail":"http://d2seqvvyy3b8p2.cloudfront.net/e8dbfb266d448b69a17e2651eeb5ca15.jpg","fullsize":"http://d2seqvvyy3b8p2.cloudfront.net/ccc8028edb6c2d19d27e46a775dee857.jpg","caption":"Aichryson tortuosum subsp. bethencourtianum"},{"thumbnail":"http://d2seqvvyy3b8p2.cloudfront.net/900aa2b09092cde8bc0c56489c37b993.jpg","fullsize":"http://d2seqvvyy3b8p2.cloudfront.net/3002c94d939aa2ce54e74d781a54ed41.jpg","caption":"Aichryson tortuosum subsp. bethencourtianum"}]},{"accepted":true,"author":"L.","kingdom":"Plantae","family":"Crassulaceae","name":"Cotyledon","rank":"Genus","url":"/taxon/urn:lsid:ipni.org:names:30005010-2","fqId":"urn:lsid:ipni.org:names:30005010-2","images":[{"thumbnail":"http://d2seqvvyy3b8p2.cloudfront.net/2c5c981e96e29d73849f7a728fa4134f.jpg","fullsize":"http://d2seqvvyy3b8p2.cloudfront.net/0a95fe0fde6c0750ab65fd7a3efcbc9a.jpg","caption":"Cotyledon orbiculata"},{"thumbnail":"http://d2seqvvyy3b8p2.cloudfront.net/a462f3ab8bb7db0de8c9f6a0f2f92789.jpg","fullsize":"http://d2seqvvyy3b8p2.cloudfront.net/03db88f44a4e3a2b956eb59b18d7fef0.jpg","caption":"Cotyledon orbiculata"},{"thumbnail":"http://d2seqvvyy3b8p2.cloudfront.net/b4014113cde38ed016e315bc498a5cab.jpg","fullsize":"http://d2seqvvyy3b8p2.cloudfront.net/718cbecec0e0ec2d6e1219e6825c8f35.jpg","caption":"Cotyledon orbiculata"}]},{"accepted":true,"author":"L.","kingdom":"Plantae","family":"Crassulaceae","name":"Crassula","rank":"Genus","url":"/taxon/urn:lsid:ipni.org:names:30014394-2","fqId":"urn:lsid:ipni.org:names:30014394-2","images":[{"thumbnail":"http://d2seqvvyy3b8p2.cloudfront.net/629e4043335a1a6a89d2b9474ade2db8.jpg","fullsize":"http://d2seqvvyy3b8p2.cloudfront.net/35ff518ac9dc9f23a40da9ed2af1b5e1.jpg","caption":"A specimen from Kew's Herbarium"},{"thumbnail":"http://d2seqvvyy3b8p2.cloudfront.net/0f663e5c3512a12f0ca673e08d95829e.jpg","fullsize":"http://d2seqvvyy3b8p2.cloudfront.net/afe6519be3736b85e9c9efc19daac8b5.jpg","caption":"Crassula aggregata, original illustration by Francis Masson"},{"thumbnail":"http://storage.googleapis.com/powop-assets/kew_profiles/KPPCONT_047092_thumbnail.jpg","fullsize":"http://storage.googleapis.com/powop-assets/kew_profiles/KPPCONT_047092_fullsize.jpg","caption":"Crassula coccinea (red crassula)"}]},{"accepted":true,"author":"Rose","kingdom":"Plantae","family":"Crassulaceae","name":"Cremnophila","rank":"Genus","url":"/taxon/urn:lsid:ipni.org:names:296980-2","fqId":"urn:lsid:ipni.org:names:296980-2","images":[{"thumbnail":"http://d2seqvvyy3b8p2.cloudfront.net/e1c01fe22c374f56a804a35747f41ac4.jpg","fullsize":"http://d2seqvvyy3b8p2.cloudfront.net/c3a9ca30113400c5a2f5003d9ec115f0.jpg","caption":"A specimen from Kew's Herbarium"}]},{"accepted":true,"author":"Britton & Rose","kingdom":"Plantae","family":"Crassulaceae","name":"Dudleya","rank":"Genus","url":"/taxon/urn:lsid:ipni.org:names:297170-2","fqId":"urn:lsid:ipni.org:names:297170-2","images":[{"thumbnail":"http://d2seqvvyy3b8p2.cloudfront.net/6155b90ecfef059ceb3376f8596b741b.jpg","fullsize":"http://d2seqvvyy3b8p2.cloudfront.net/8ac2644294af34f1c23dc4acdf89b282.jpg","caption":"A specimen from Kew's Herbarium"},{"thumbnail":"http://d2seqvvyy3b8p2.cloudfront.net/c5ccb853d6d0240207dcf83a3406edc3.jpg","fullsize":"http://d2seqvvyy3b8p2.cloudfront.net/6a82cfe2cefc5f9e4d2294b043ce1586.jpg","caption":"A specimen from Kew's Herbarium"},{"thumbnail":"http://d2seqvvyy3b8p2.cloudfront.net/1e69d3af0043c201fd6ad23c5da26ace.jpg","fullsize":"http://d2seqvvyy3b8p2.cloudfront.net/3e48e3be1b2e079a42d4e739f9d57156.jpg","caption":"A specimen from Kew's Herbarium"}]},{"accepted":true,"author":"DC.","kingdom":"Plantae","family":"Crassulaceae","name":"Echeveria","rank":"Genus","url":"/taxon/urn:lsid:ipni.org:names:30004414-2","fqId":"urn:lsid:ipni.org:names:30004414-2","images":[{"thumbnail":"http://d2seqvvyy3b8p2.cloudfront.net/db4b0681cdde6dce244ed4c4f06d028c.jpg","fullsize":"http://d2seqvvyy3b8p2.cloudfront.net/101337c36815d3513716f0765272b764.jpg","caption":"Echeveria DC."},{"thumbnail":"http://d2seqvvyy3b8p2.cloudfront.net/0b3fdeaada3206656dd63526e017e050.jpg","fullsize":"http://d2seqvvyy3b8p2.cloudfront.net/4d322bdc77440dce9235a5c827192576.jpg","caption":"Echeveria 'Compton Carousel'"},{"thumbnail":"http://d2seqvvyy3b8p2.cloudfront.net/b10baab6feb3c7965930dffd7fcbc28c.jpg","fullsize":"http://d2seqvvyy3b8p2.cloudfront.net/90194d8ca1d6192f0fa83967b522eedc.jpg","caption":"Echeveria 'Pullox'"}]},{"accepted":true,"author":"Rose","kingdom":"Plantae","family":"Crassulaceae","name":"Graptopetalum","rank":"Genus","url":"/taxon/urn:lsid:ipni.org:names:295712-2","fqId":"urn:lsid:ipni.org:names:295712-2","images":[{"thumbnail":"http://d2seqvvyy3b8p2.cloudfront.net/e8c567617d2d7e09701800d6a09fa8eb.jpg","fullsize":"http://d2seqvvyy3b8p2.cloudfront.net/67d07e8d60e4302356a63736c9553218.jpg","caption":"Graptopetalum amethystinum"},{"thumbnail":"http://d2seqvvyy3b8p2.cloudfront.net/6a68332bce899ab94bce1f97254b83a6.jpg","fullsize":"http://d2seqvvyy3b8p2.cloudfront.net/d755f30d54097775e4cc1a9fb5d5cfa9.jpg","caption":"Graptopetalum amethystinum"},{"thumbnail":"http://d2seqvvyy3b8p2.cloudfront.net/1781815b974ae7a3d096a73deca6cdca.jpg","fullsize":"http://d2seqvvyy3b8p2.cloudfront.net/5f3e5f71e4dad88e002bd31e1df7d9c9.jpg","caption":"Graptopetalum paraguayense"}]},{"accepted":true,"author":"H.Ohba","kingdom":"Plantae","family":"Crassulaceae","name":"Hylotelephium","rank":"Genus","url":"/taxon/urn:lsid:ipni.org:names:12183-1","fqId":"urn:lsid:ipni.org:names:12183-1","images":[{"thumbnail":"http://d2seqvvyy3b8p2.cloudfront.net/303ac5ec3c1fc96d810f7b4a22636822.jpg","fullsize":"http://d2seqvvyy3b8p2.cloudfront.net/b50799c485c44509c19d57cf7ea5e1eb.jpg","caption":"Hylotelephium maximum subsp. ruprechtii"},{"thumbnail":"http://d2seqvvyy3b8p2.cloudfront.net/0f69346621da1deb64edc451133b9cd4.jpg","fullsize":"http://d2seqvvyy3b8p2.cloudfront.net/fb3d6f9397e674d280e8191c466daed3.jpg","caption":"Hylotelephium spectabile"},{"thumbnail":"http://d2seqvvyy3b8p2.cloudfront.net/ae6edf75e88ef687cf3d3e8736d7199f.jpg","fullsize":"http://d2seqvvyy3b8p2.cloudfront.net/866c0050035d09dd029483a1b8ce7c76.jpg","caption":"Hylotelephium tatarinowii"}]},{"accepted":true,"author":"A.Berger","kingdom":"Plantae","family":"Crassulaceae","name":"Hypagophytum","rank":"Genus","url":"/taxon/urn:lsid:ipni.org:names:12184-1","fqId":"urn:lsid:ipni.org:names:12184-1","images":[{"thumbnail":"http://d2seqvvyy3b8p2.cloudfront.net/ff1b9008ec5df2f62b91389fce2b8078.jpg","fullsize":"http://d2seqvvyy3b8p2.cloudfront.net/a33c732d15870b7b76526567fe19a70b.jpg","caption":"A specimen from Kew's Herbarium"}]},{"accepted":true,"author":"Adans.","kingdom":"Plantae","family":"Crassulaceae","name":"Kalanchoe","rank":"Genus","url":"/taxon/urn:lsid:ipni.org:names:30060186-2","fqId":"urn:lsid:ipni.org:names:30060186-2","images":[{"thumbnail":"http://d2seqvvyy3b8p2.cloudfront.net/c6c264484270b7fc43da50aa3128e015.jpg","fullsize":"http://d2seqvvyy3b8p2.cloudfront.net/44f219842e7336955f744f380fbbba6e.jpg","caption":"Kalanchoe pinnata"},{"thumbnail":"http://d2seqvvyy3b8p2.cloudfront.net/9c8020373f13e994a2709784395fe410.jpg","fullsize":"http://d2seqvvyy3b8p2.cloudfront.net/9ee73ad812b5fd862abaa87bb77594b7.jpg","caption":"Bryophyllum"},{"thumbnail":"http://storage.googleapis.com/powop-assets/kew_profiles/Kalanchoe%20schimperiana%20(Main)_thumbnail.jpg","fullsize":"http://storage.googleapis.com/powop-assets/kew_profiles/Kalanchoe%20schimperiana%20(Main)_fullsize.jpg","caption":"Kalanchoe schimperiana"}]},{"accepted":true,"author":"Rose","kingdom":"Plantae","family":"Crassulaceae","name":"Lenophyllum","rank":"Genus","url":"/taxon/urn:lsid:ipni.org:names:297454-2","fqId":"urn:lsid:ipni.org:names:297454-2","images":[{"thumbnail":"http://d2seqvvyy3b8p2.cloudfront.net/df3277d732bb3106430c7e42bb6695b4.jpg","fullsize":"http://d2seqvvyy3b8p2.cloudfront.net/235002314d6532537fb913718b448e85.jpg","caption":"A specimen from Kew's Herbarium"},{"thumbnail":"http://d2seqvvyy3b8p2.cloudfront.net/f03fce54ab51a58d4e2bcac5d27c9140.jpg","fullsize":"http://d2seqvvyy3b8p2.cloudfront.net/41f0f89b5ed5cda95964ff8260858e33.jpg","caption":"A specimen from Kew's Herbarium"}]},{"accepted":true,"author":"Nakai","kingdom":"Plantae","family":"Crassulaceae","name":"Meterostachys","rank":"Genus","url":"/taxon/urn:lsid:ipni.org:names:12199-1","fqId":"urn:lsid:ipni.org:names:12199-1","images":[{"thumbnail":"http://d2seqvvyy3b8p2.cloudfront.net/2ed42983c86ff5152eb90eae9beecc6a.jpg","fullsize":"http://d2seqvvyy3b8p2.cloudfront.net/4c194a2e12d115352ba8872b50619f7b.jpg","caption":"A specimen from Kew's Herbarium"}]},{"accepted":true,"author":"Haw.","kingdom":"Plantae","family":"Crassulaceae","name":"Monanthes","rank":"Genus","url":"/taxon/urn:lsid:ipni.org:names:12201-1","fqId":"urn:lsid:ipni.org:names:12201-1","images":[{"thumbnail":"http://d2seqvvyy3b8p2.cloudfront.net/40f97d2ff2ad16db7f23630d6a3fd6fd.jpg","fullsize":"http://d2seqvvyy3b8p2.cloudfront.net/02ed9f762a638e70d297c50667bba792.jpg","caption":"A specimen from Kew's Herbarium"},{"thumbnail":"http://d2seqvvyy3b8p2.cloudfront.net/ca6bd13dca1546622132a133b65a2506.jpg","fullsize":"http://d2seqvvyy3b8p2.cloudfront.net/78ec7c13882ecef3be5ba34cc27c9f10.jpg","caption":"A specimen from Kew's Herbarium"},{"thumbnail":"http://d2seqvvyy3b8p2.cloudfront.net/995be0e8b29b14d91e366b39637baa15.jpg","fullsize":"http://d2seqvvyy3b8p2.cloudfront.net/ea2f8147fa1a0eb8d1e9bf8828a813e2.jpg","caption":"Monanthes muralis Hook.f. published illustration from Curtis's Botanical Magazine"}]},{"accepted":true,"author":"Fisch.","kingdom":"Plantae","family":"Crassulaceae","name":"Orostachys","rank":"Genus","url":"/taxon/urn:lsid:ipni.org:names:12205-1","fqId":"urn:lsid:ipni.org:names:12205-1","images":[{"thumbnail":"http://d2seqvvyy3b8p2.cloudfront.net/c9f82b8bc8270fb69a7bd17a75d05df0.jpg","fullsize":"http://d2seqvvyy3b8p2.cloudfront.net/04eda0cc45a5f2797607875fc16248b2.jpg","caption":"Orostachys fimbriata"},{"thumbnail":"http://d2seqvvyy3b8p2.cloudfront.net/9a9d84c0355f89224946110732966331.jpg","fullsize":"http://d2seqvvyy3b8p2.cloudfront.net/720e9830d62b6518e67e6ac2a5270f75.jpg","caption":"Orostachys chanetii"},{"thumbnail":"http://d2seqvvyy3b8p2.cloudfront.net/8cb7a7942ad7a2f19d4456887a334335.jpg","fullsize":"http://d2seqvvyy3b8p2.cloudfront.net/f5da5f5ed489b378e3f5f5dca9b273d8.jpg","caption":"Orostachys fimbriata"}]},{"accepted":true,"author":"Link, Klotzsch & Otto","kingdom":"Plantae","family":"Crassulaceae","name":"Pachyphytum","rank":"Genus","url":"/taxon/urn:lsid:ipni.org:names:30016535-2","fqId":"urn:lsid:ipni.org:names:30016535-2","images":[{"thumbnail":"http://storage.googleapis.com/powop-assets/neotropikey/JonEvery_Pachyphytum_coeruleum_1_thumbnail.jpg","fullsize":"http://storage.googleapis.com/powop-assets/neotropikey/JonEvery_Pachyphytum_coeruleum_1_fullsize.jpg","caption":"Pachyphytum coeruleum (Crassulaceae)"},{"thumbnail":"http://d2seqvvyy3b8p2.cloudfront.net/c3d82583b6fb581b87901b1cd2893e2f.jpg","fullsize":"http://d2seqvvyy3b8p2.cloudfront.net/4d26c03e8f902352c04685362bba76e3.jpg","caption":"Pachyphytum compactum"},{"thumbnail":"http://d2seqvvyy3b8p2.cloudfront.net/dc8bd2b13372d8a891134233c5d5572d.jpg","fullsize":"http://d2seqvvyy3b8p2.cloudfront.net/f96f599184a86537d54cf8e29786474f.jpg","caption":"A specimen from Kew's Herbarium"}]},{"accepted":true,"author":"Grulich","kingdom":"Plantae","family":"Crassulaceae","name":"Petrosedum","rank":"Genus","url":"/taxon/urn:lsid:ipni.org:names:893404-1","fqId":"urn:lsid:ipni.org:names:893404-1","images":[{"thumbnail":"http://d2seqvvyy3b8p2.cloudfront.net/9b1ccc2d48647cb6925d545786e32989.jpg","fullsize":"http://d2seqvvyy3b8p2.cloudfront.net/31a9e47150e1c0856cf02ee7b9652faa.jpg","caption":"Petrosedum sediforme"},{"thumbnail":"http://d2seqvvyy3b8p2.cloudfront.net/4a145ac81b35379230343f47c987a910.jpg","fullsize":"http://d2seqvvyy3b8p2.cloudfront.net/ae72cd3db133d6ac85129b5a91caba62.jpg","caption":"Petrosedum amplexicaule"},{"thumbnail":"http://d2seqvvyy3b8p2.cloudfront.net/237c4307a2fff27f3949800d639d4fb6.jpg","fullsize":"http://d2seqvvyy3b8p2.cloudfront.net/143f39dc67ce3544deee3f7988b62223.jpg","caption":"Petrosedum rupestre"}]},{"accepted":true,"author":"Raf.","kingdom":"Plantae","family":"Crassulaceae","name":"Phedimus","rank":"Genus","url":"/taxon/urn:lsid:ipni.org:names:12218-1","fqId":"urn:lsid:ipni.org:names:12218-1","images":[{"thumbnail":"http://d2seqvvyy3b8p2.cloudfront.net/4d0946c9d3168b26e7a4dc6bad968cd9.jpg","fullsize":"http://d2seqvvyy3b8p2.cloudfront.net/66ac18d808376c27b6d861730e1355c5.jpg","caption":"Phedimus aizoon"},{"thumbnail":"http://d2seqvvyy3b8p2.cloudfront.net/9cf8b1217aeae31be7a53f85386e3bf1.jpg","fullsize":"http://d2seqvvyy3b8p2.cloudfront.net/0e16af3ede3d97299704552667f43e56.jpg","caption":"Phedimus spurius 'Fuldaglut'"},{"thumbnail":"http://d2seqvvyy3b8p2.cloudfront.net/5c7dd71aeec0d0d9be52ff6fe8eda27e.jpg","fullsize":"http://d2seqvvyy3b8p2.cloudfront.net/48a1925dcfd2546467ab2151a552849c.jpg","caption":"Phedimus aizoon"}]},{"accepted":true,"author":"DC.","kingdom":"Plantae","family":"Crassulaceae","name":"Pistorinia","rank":"Genus","url":"/taxon/urn:lsid:ipni.org:names:12220-1","fqId":"urn:lsid:ipni.org:names:12220-1","images":[{"thumbnail":"http://d2seqvvyy3b8p2.cloudfront.net/3cb2c05282cefc057faa6621f37e45d0.jpg","fullsize":"http://d2seqvvyy3b8p2.cloudfront.net/cb871cebe0b492f97a3c9a1346a4c15d.jpg","caption":"A specimen from Kew's Herbarium"},{"thumbnail":"http://d2seqvvyy3b8p2.cloudfront.net/df5b91d21dd93e15c21fbb6fd8516635.jpg","fullsize":"http://d2seqvvyy3b8p2.cloudfront.net/495573932ae96ed36dc7ef1402fe8662.jpg","caption":"A specimen from Kew's Herbarium"}]},{"accepted":true,"author":"(A.Berger) H.Ohba","kingdom":"Plantae","family":"Crassulaceae","name":"Prometheum","rank":"Genus","url":"/taxon/urn:lsid:ipni.org:names:12222-1","fqId":"urn:lsid:ipni.org:names:12222-1","images":[{"thumbnail":"http://d2seqvvyy3b8p2.cloudfront.net/3555e230e83d0a491d0fa51f086fbd98.jpg","fullsize":"http://d2seqvvyy3b8p2.cloudfront.net/3f4a148d3533e6e29a6aa01351e97785.jpg","caption":"Prometheum pilosum"},{"thumbnail":"http://d2seqvvyy3b8p2.cloudfront.net/a253ed4ccdab6f176f211525e1ba2903.jpg","fullsize":"http://d2seqvvyy3b8p2.cloudfront.net/69fd0354c7feff12e996e5bcac7fbc4e.jpg","caption":"Prometheum sempervivoides"},{"thumbnail":"http://d2seqvvyy3b8p2.cloudfront.net/9bc9a532a131636f74b4fd63469ddfd7.jpg","fullsize":"http://d2seqvvyy3b8p2.cloudfront.net/76482e1365d42f5c5579679fc37ae9d9.jpg","caption":"Prometheum pilosum"}]},{"accepted":true,"author":"L.","kingdom":"Plantae","family":"Crassulaceae","name":"Rhodiola","rank":"Genus","url":"/taxon/urn:lsid:ipni.org:names:30061153-2","fqId":"urn:lsid:ipni.org:names:30061153-2","images":[{"thumbnail":"http://d2seqvvyy3b8p2.cloudfront.net/0eafa42bdabe741a6bf53e2ea04bff64.jpg","fullsize":"http://d2seqvvyy3b8p2.cloudfront.net/f3f1a43a0675f575cdd6c02a7187dc42.jpg","caption":"Rhodiola kirilowii"},{"thumbnail":"http://d2seqvvyy3b8p2.cloudfront.net/6a212b3cc63b236be96ef93c4624c3cc.jpg","fullsize":"http://d2seqvvyy3b8p2.cloudfront.net/9b756f66bfeb38ce476f8a3609a2c9fc.jpg","caption":"Rhodiola dumulosa"},{"thumbnail":"http://d2seqvvyy3b8p2.cloudfront.net/b1cb6d28e371a7ba2779cd7a214af25f.jpg","fullsize":"http://d2seqvvyy3b8p2.cloudfront.net/87aa39074819cdd9e682bec86de68b2e.jpg","caption":"Rhodiola rosea"}]},{"accepted":true,"author":"(DC.) Stapf","kingdom":"Plantae","family":"Crassulaceae","name":"Rosularia","rank":"Genus","url":"/taxon/urn:lsid:ipni.org:names:12234-1","fqId":"urn:lsid:ipni.org:names:12234-1","images":[{"thumbnail":"http://d2seqvvyy3b8p2.cloudfront.net/95dba3ba6f180a9ab0a70e1840345f7c.jpg","fullsize":"http://d2seqvvyy3b8p2.cloudfront.net/771ec47c2f7efad205baa4be14d60a2d.jpg","caption":"Rosularia serrata"},{"thumbnail":"http://d2seqvvyy3b8p2.cloudfront.net/fdd109962de68e48adfa3a00dbaa657a.jpg","fullsize":"http://d2seqvvyy3b8p2.cloudfront.net/9c535f73f3a6a0278e8ca45d12136f70.jpg","caption":"Rosularia sempervivum subsp. libanotica"},{"thumbnail":"http://d2seqvvyy3b8p2.cloudfront.net/94fdb04de69049f92e7af2224fbc370f.jpg","fullsize":"http://d2seqvvyy3b8p2.cloudfront.net/e1b1f0926e53b01b87be6b787ecc1462.jpg","caption":"Rosularia lineata"}]}]}